{
	"client_name":"maanavan",
	"logo_src":"http://s3.maanavan.cloodon.com.s3.amazonaws.com/logo.png",
	"enable_registration":"true",
	"ajax_domain":"http://demo.cloodon.com",
	"carousel":["js/image/caro1.jpg","js/image/caro2.jpg","js/image/caro3.jpg","js/image/caro4.jpg","js/image/caro5.jpg"]
}